<svg xmlns="http://www.w3.org/2000/svg" xmlns:xlink="http://www.w3.org/1999/xlink" preserveAspectRatio="xMidYMid" width="10" height="10" viewBox="0 0 10 10">
  <defs>
    <style>
      .cls-1 {
        fill: #307296;
        fill-rule: evenodd;
      }
    </style>
  </defs>
  <path d="M10.000,10.000 L1.000,10.000 L-0.000,10.000 L-0.000,9.000 L-0.000,-0.001 L1.000,-0.001 L1.000,9.000 L10.000,9.000 L10.000,10.000 Z" class="cls-1"/>
</svg>
