<?xml version="1.0" encoding="utf-8"?>
<!-- Generator: Adobe Illustrator 19.1.0, SVG Export Plug-In . SVG Version: 6.00 Build 0)  -->
<svg version="1.1" id="Layer_1" xmlns="http://www.w3.org/2000/svg" xmlns:xlink="http://www.w3.org/1999/xlink" x="0px" y="0px"
	 viewBox="-280 372 50 50" style="enable-background:new -280 372 50 50;" xml:space="preserve">
<style type="text/css">
	.st0{fill:#FFFFFF;}
</style>
<g>
	<g>
		<path class="st0" d="M-255,373.7c12.8,0,23.3,10.4,23.3,23.3s-10.5,23.3-23.3,23.3c-12.8,0-23.3-10.5-23.3-23.3
			S-267.8,373.7-255,373.7 M-255,372c-13.8,0-25,11.2-25,25s11.2,25,25,25c13.8,0,25-11.2,25-25S-241.2,372-255,372L-255,372z"/>
	</g>
	<g>
		<path class="st0" d="M-252.9,397.7c0.5,0,0.9-0.4,0.9-0.9l0,0c0-0.5-0.4-0.9-0.9-0.9h-3c-0.5,0-0.9,0.4-0.9,0.9l0,0
			c0,0.5,0.4,0.9,0.9,0.9h0.6v5.6h-0.6c-0.5,0-0.9,0.4-0.9,0.9l0,0c0,0.5,0.4,0.9,0.9,0.9h3c0.5,0,0.9-0.4,0.9-0.9l0,0
			c0-0.5-0.4-0.9-0.9-0.9h-0.6v-5.6H-252.9z"/>
		<g>
			<g>
				<path class="st0" d="M-243.5,410.7h-21.7c-1.1,0-2-0.9-2-2v-11.1c-0.7-0.3-1.2-1-1.2-1.8v-4.9c0-1.1,0.9-2,2-2h24.1
					c1.1,0,2,0.9,2,1.9v4.9c0,0.8-0.5,1.5-1.2,1.8v11.2C-241.5,409.8-242.4,410.7-243.5,410.7z M-266.4,390.7
					c-0.1,0-0.2,0.1-0.2,0.2v4.9c0,0.1,0.1,0.2,0.2,0.2h1v12.7c0,0.1,0.1,0.2,0.2,0.2h21.7c0.1,0,0.2-0.1,0.2-0.2v-12.8h1
					c0.1,0,0.2-0.1,0.2-0.2v-4.9c0,0-0.1-0.1-0.2-0.1H-266.4z M-254.4,407.9c-4.3,0-7.8-3.5-7.8-7.8c0-4.3,3.5-7.8,7.8-7.8
					s7.8,3.5,7.8,7.8C-246.6,404.4-250.1,407.9-254.4,407.9z M-254.4,394.1c-3.3,0-6,2.7-6,6c0,3.3,2.7,6,6,6s6-2.7,6-6
					C-248.4,396.8-251.1,394.1-254.4,394.1z"/>
			</g>
			<path class="st0" d="M-259.5,387.6L-259.5,387.6c3.4,0,6.8,0,10.3,0l0,0c1.1,0,2-0.4,2.7-1.1s1.1-1.7,1.1-2.7
				c0-1.1-0.4-2-1.1-2.7c-0.7-0.7-1.7-1.1-2.7-1.1c-1.1,0-2,0.4-2.7,1.1c-0.4,0.4-0.7,0.9-0.9,1.5c-0.4-0.3-0.9-0.4-1.4-0.4
				c-0.6,0-1.1,0.2-1.5,0.5c-0.3-0.7-0.7-1.2-1.1-1.7c-0.7-0.7-1.7-1.1-2.7-1.1c-1.1,0-2,0.4-2.7,1.1c-0.7,0.7-1.1,1.7-1.1,2.7
				c0,1.1,0.4,2,1.1,2.7C-261.5,387.2-260.6,387.6-259.5,387.6z M-251.6,384.9c0-0.4-0.1-0.7-0.2-1v-0.1c0-0.7,0.3-1.3,0.7-1.8
				c0.5-0.5,1.1-0.7,1.8-0.7s1.3,0.3,1.8,0.7c0.5,0.5,0.7,1.1,0.7,1.8c0,0.7-0.3,1.3-0.7,1.8c-0.5,0.5-1.1,0.7-1.8,0.7h-2.7
				C-251.7,385.9-251.6,385.4-251.6,384.9z M-255.3,383.9c0.3-0.3,0.6-0.4,1-0.4c0.4,0,0.8,0.2,1,0.4c0.3,0.3,0.4,0.6,0.4,1
				s-0.2,0.8-0.4,1l0,0c-0.3,0.2-0.6,0.4-1,0.4c-0.4,0-0.8-0.2-1-0.4c-0.3-0.3-0.4-0.6-0.4-1C-255.8,384.5-255.6,384.1-255.3,383.9z
				 M-261.3,382c0.5-0.5,1.1-0.7,1.8-0.7s1.3,0.3,1.8,0.7c0.5,0.5,0.7,1.1,0.7,1.8c0,0.1,0,0.2,0,0.2c-0.1,0.3-0.1,0.6-0.1,0.9
				c0,0.5,0.1,1,0.4,1.4h-2.9c-0.7,0-1.3-0.3-1.8-0.7c-0.5-0.5-0.7-1.1-0.7-1.8C-262.1,383.1-261.8,382.4-261.3,382z"/>
		</g>
	</g>
</g>
</svg>
