<?xml version="1.0" encoding="utf-8"?>
<!-- Generator: Adobe Illustrator 19.2.1, SVG Export Plug-In . SVG Version: 6.00 Build 0)  -->
<svg version="1.1" id="Layer_1" xmlns="http://www.w3.org/2000/svg" xmlns:xlink="http://www.w3.org/1999/xlink" x="0px" y="0px"
	 viewBox="0 0 16 16" style="enable-background:new 0 0 16 16;" xml:space="preserve">
<style type="text/css">
	.st0{fill:#9CB4C1;}
</style>
<path class="st0" d="M15.8,5.8l-5.6-5.6C10,0,9.6,0,9.3,0.2L8,1.6l0,0C7.7,1.8,7.7,2.2,8,2.4L8.5,3L3.9,6.6L3.6,6.2l0,0
	C3.3,5.9,3,5.9,2.7,6.2L1.3,7.6l0,0c-0.2,0.2-0.2,0.6,0,0.9L4,11.1l-3.8,3.8c-0.2,0.2-0.2,0.6,0,0.9c0.2,0.2,0.6,0.2,0.9,0L4.9,12
	l2.7,2.7l0,0l0,0c0.2,0.2,0.6,0.2,0.9,0l1.4-1.4l0,0c0.2-0.2,0.2-0.6,0-0.9L9.5,12L13,7.5L13.5,8l0,0c0.2,0.2,0.6,0.2,0.9,0l1.4-1.4
	l0,0C16.1,6.4,16.1,6,15.8,5.8L15.8,5.8z M8,13.4L8,13.4L2.6,8l0.5-0.5l0.1,0.1l0.2,0.2l0,0l4.7,4.7l0,0l0,0l0.3,0.3L8,13.4L8,13.4z
	 M8.3,11.6L8.3,11.6L4.4,7.7l5.4-4.1l2.6,2.6L8.3,11.6L8.3,11.6z M14,6.7L14,6.7L13.3,6L9.9,2.7L9.5,2.3L9.3,2l0.5-0.5l4.7,4.7
	L14,6.7L14,6.7z"/>
</svg>
