<?xml version="1.0" encoding="utf-8"?>
<!-- Generator: Adobe Illustrator 19.2.1, SVG Export Plug-In . SVG Version: 6.00 Build 0)  -->
<svg version="1.1" id="Layer_1" xmlns="http://www.w3.org/2000/svg" xmlns:xlink="http://www.w3.org/1999/xlink" x="0px" y="0px"
	 viewBox="0 0 16 16" style="enable-background:new 0 0 16 16;" xml:space="preserve">
<style type="text/css">
	.st0{fill:#9CB4C1;}
</style>
<path class="st0" d="M8,0c2.2,0,4.2,0.9,5.7,2.3l0,0C15.1,3.8,16,5.8,16,8c0,0.9-0.1,1.7-0.4,2.5c-0.2,0.7-0.6,1.4-1,2.1v2.8
	c0,0.3-0.3,0.6-0.6,0.6l0,0H8c-2.2,0-4.2-0.9-5.7-2.3l0,0l0,0C0.9,12.2,0,10.2,0,8s0.9-4.2,2.3-5.7l0,0C3.8,0.9,5.8,0,8,0L8,0z
	 M4,6.4L4,6.4h8c0.2,0,0.4-0.2,0.4-0.4S12.2,5.7,12,5.7H4C3.8,5.7,3.6,5.8,3.6,6S3.8,6.4,4,6.4L4,6.4z M4,8.4L4,8.4h8
	c0.2,0,0.4-0.2,0.4-0.4c0-0.2-0.2-0.4-0.4-0.4H4C3.8,7.6,3.6,7.8,3.6,8S3.8,8.4,4,8.4L4,8.4z M4,10.3L4,10.3h8
	c0.2,0,0.4-0.2,0.4-0.4S12.2,9.5,12,9.5H4c-0.2,0-0.4,0.2-0.4,0.4C3.6,10.2,3.8,10.3,4,10.3L4,10.3z M12.8,3.2L12.8,3.2
	c-1.2-1.2-2.9-2-4.8-2S4.4,2,3.2,3.2l0,0l0,0C2,4.4,1.2,6.1,1.2,8s0.8,3.6,2,4.8l0,0c1.2,1.2,2.9,2,4.8,2h5.4v-2.4l0,0
	c0-0.1,0-0.3,0.1-0.4c0.4-0.6,0.7-1.2,1-1.9c0.2-0.7,0.3-1.4,0.3-2.1C14.8,6.1,14,4.5,12.8,3.2L12.8,3.2L12.8,3.2z"/>
</svg>
